…
1 mae     standard   1167.        5 58.6    Preprocessor1_Model1
2 rmse    standard   1457.        5 76.6    Preprocessor1_Model1
3 rsq     standard      0.485     5  0.0319 Preprocessor1_Model1
# Tuning results
# 5-fold cross-validation using stratification 
# A tibble: 5 × 5
  splits           id    .metrics           .notes           .predictions
  <list>           <chr> <list>             <list>           <list>      
1 <split [320/84]> Fold1 <tibble [576 × 9]> <tibble [0 × 3]> <tibble>    
2 <split [324/80]> Fold2 <tibble [576 × 9]> <tibble [0 × 3]> <tibble>    
3 <split [324/80]> Fold3 <tibble [576 × 9]> <tibble [0 × 3]> <tibble>    
4 <split [324/80]> Fold4 <tibble [576 × 9]> <tibble [0 × 3]> <tibble>    
5 <split [324/80]> Fold5 <tibble [576 × 9]> <tibble [0 × 3]> <tibble>    
Model has been saved as: model_output/data_isqrt_soil_Warm.Semiarid/tuning/models/rf_best_model.rds 
# A tibble: 576 × 11
    mtry trees min_n max.depth sample.fraction .metric .estimator     mean     n
   <int> <int> <int>     <int>           <dbl> <chr>   <chr>         <dbl> <int>
 1     3   500    20         3             0.5 mae     standard    904.        5
 2     3   500    20         3             0.5 rmse    standard   1162.        5
 3     3   500    20         3             0.5 rsq     standard      0.688     5
 4     5   500    20         3             0.5 mae     standard    865.        5
 5     5   500    20         3             0.5 rmse    standard   1124.        5
 6     5   500    20         3             0.5 rsq     standard      0.701     5
 7     7   500    20         3             0.5 mae     standard    853.        5
 8     7   500    20         3             0.5 rmse    standard   1113.        5
 9     7   500    20         3             0.5 rsq     standard      0.703     5
10     9   500    20         3             0.5 mae     standard    845.        5
# ℹ 566 more rows
# ℹ 2 more variables: std_err <dbl>, .config <chr>
…
