…
There were issues with some computations:

  - Warning(s) x240: 9 columns were requested but there were 7 predictors in the data....

Run `show_notes(.Last.tune.result)` for more information.
Model has been saved as: model_output/data_isqrt_nosoil_Warm.Subhumid/tuning/models/rf_best_model.rds 
# A tibble: 576 × 11
    mtry trees min_n max.depth sample.fraction .metric .estimator     mean     n
   <int> <int> <int>     <int>           <dbl> <chr>   <chr>         <dbl> <int>
 1     3   500    20         3             0.5 mae     standard   1046.        5
 2     3   500    20         3             0.5 rmse    standard   1353.        5
 3     3   500    20         3             0.5 rsq     standard      0.340     5
 4     5   500    20         3             0.5 mae     standard   1040.        5
 5     5   500    20         3             0.5 rmse    standard   1349.        5
 6     5   500    20         3             0.5 rsq     standard      0.330     5
 7     7   500    20         3             0.5 mae     standard   1043.        5
 8     7   500    20         3             0.5 rmse    standard   1351.        5
 9     7   500    20         3             0.5 rsq     standard      0.317     5
10     9   500    20         3             0.5 mae     standard   1043.        5
# ℹ 566 more rows
# ℹ 2 more variables: std_err <dbl>, .config <chr>
…
